{
  "project_info": {
    "project_number": "119577038577",
    "firebase_url": "https://studyhelp-adb4f.firebaseio.com",
    "project_id": "studyhelp-adb4f",
    "storage_bucket": "studyhelp-adb4f.appspot.com"
  },
  "client": [
    {
      "client_info": {
        "mobilesdk_app_id": "1:119577038577:android:c531f3c332a84a8b",
        "android_client_info": {
          "package_name": "com.example.nowshin.studyhelp"
        }
      },
      "oauth_client": [
        {
          "client_id": "119577038577-c6icoge23mubke45s9fp0ej4fa8ikhh6.apps.googleusercontent.com",
          "client_type": 3
        }
      ],
      "api_key": [
        {
          "current_key": "AIzaSyCvn22_aMjC1oYnTpQ93R9fvFob_H9yzXY"
        }
      ],
      "services": {
        "analytics_service": {
          "status": 1
        },
        "appinvite_service": {
          "status": 1,
          "other_platform_oauth_client": []
        },
        "ads_service": {
          "status": 2
        }
      }
    }
  ],
  "configuration_version": "1"
}